<svg id="Bg" xmlns="http://www.w3.org/2000/svg" xmlns:xlink="http://www.w3.org/1999/xlink" width="1696" height="732.603" viewBox="0 0 1696 732.603">
  <defs>
    <linearGradient id="linear-gradient" x1="0.805" y1="-0.473" x2="0.555" y2="0.444" gradientUnits="objectBoundingBox">
      <stop offset="0" stop-color="#f3f8fa"/>
      <stop offset="1" stop-color="#fff"/>
    </linearGradient>
  </defs>
  <path id="Path_23" data-name="Path 23" d="M0,148.221,1336.394,2.152s171.05-20.01,213.563,146.07S1696,734,1696,734H0Z" transform="translate(1696 734) rotate(180)" fill="url(#linear-gradient)"/>
</svg>
