<svg id="cantinue" xmlns="http://www.w3.org/2000/svg" width="34" height="34" viewBox="0 0 34 34">
  <circle id="Ellipse_48" data-name="Ellipse 48" cx="17" cy="17" r="17" fill="#00e5ff"/>
  <g id="Group_227" data-name="Group 227" transform="translate(-5282.5 -3050.5)">
    <line id="Line_28" data-name="Line 28" y1="11" transform="translate(5296.5 3062.5)" fill="none" stroke="#fff" stroke-linecap="round" stroke-width="2"/>
    <line id="Line_29" data-name="Line 29" y1="11" transform="translate(5302.5 3062.5)" fill="none" stroke="#fff" stroke-linecap="round" stroke-width="2"/>
  </g>
</svg>
