<?xml version="1.0" encoding="utf-8"?>
<svg width="122px" height="122px" viewBox="0 0 122 122" version="1.1" xmlns:xlink="http://www.w3.org/1999/xlink" xmlns="http://www.w3.org/2000/svg">
  <desc>Created with Lunacy</desc>
  <path d="M0 0L1 112" transform="translate(63 5)" id="Line" fill="none" stroke="#3D82F0" stroke-width="10" stroke-linecap="round" stroke-linejoin="round" />
  <path d="M0 2L112 0" transform="translate(5 61)" id="Line-2" fill="none" stroke="#3D82F0" stroke-width="10" stroke-linecap="round" stroke-linejoin="round" />
</svg>