<?xml version="1.0" encoding="utf-8"?>
<svg width="190px" height="197px" viewBox="0 0 190 197" version="1.1" xmlns:xlink="http://www.w3.org/1999/xlink" xmlns="http://www.w3.org/2000/svg">
  <desc>Created with Lunacy</desc>
  <defs>
    <path d="M0 18.9699L190 0L190 177.835L0 197L0 18.9699Z" id="path_1" />
    <clipPath id="mask_1">
      <use xlink:href="#path_1" />
    </clipPath>
  </defs>
  <g id="o">
    <path d="M0 0L179 0L179 179L0 179L0 0Z" transform="translate(11 0)" id="Background" fill="none" stroke="none" />
    <g id="Bg">
      <path d="M0 18.9699L190 0L190 177.835L0 197L0 18.9699Z" id="Mask" fill="none" stroke="none" />
      <g clip-path="url(#mask_1)">
        <g fill="#EEEEEE" fill-opacity="0.05" stroke="none" id="O" transform="matrix(-1 -8.742278E-08 8.742278E-08 -1 398.0112 346.4352)">
          <path d="M205.713 564.999Q123.804 564.999 74.5239 511.02Q25.2441 457.04 25.2441 370.565Q25.2441 277.646 75.4639 222.323Q125.684 167.001 212.158 167.001Q291.919 167.001 340.662 220.712Q389.404 274.423 389.404 361.166Q389.404 455.429 339.453 510.214Q289.502 564.999 205.713 564.999ZM208.936 207.821Q148.242 207.821 110.376 251.596Q72.5098 295.37 72.5098 366.537Q72.5098 437.704 109.436 481.076Q146.362 524.447 205.713 524.447Q269.092 524.447 305.615 483.09Q342.139 441.732 342.139 367.343Q342.139 291.073 306.689 249.447Q271.24 207.821 208.936 207.821Z" />
        </g>
      </g>
    </g>
  </g>
</svg>