<svg xmlns="http://www.w3.org/2000/svg" width="18.203" height="18.203" viewBox="0 0 18.203 18.203">
  <g id="Group_190" data-name="Group 190" transform="translate(-554.289 -794.289)">
    <g id="Ellipse_46" data-name="Ellipse 46" transform="translate(554.289 794.289)" fill="none" stroke="#ff930e" stroke-width="1">
      <circle cx="7" cy="7" r="7" stroke="none"/>
      <circle cx="7" cy="7" r="6.5" fill="none"/>
    </g>
    <line id="Line_26" data-name="Line 26" x2="4.725" y2="4.725" transform="translate(566.352 806.352)" fill="none" stroke="#ff930e" stroke-linecap="round" stroke-width="2"/>
  </g>
</svg>
