<?xml version="1.0" encoding="utf-8"?>
<svg width="18px" height="14px" viewBox="0 0 18 14" version="1.1" xmlns:xlink="http://www.w3.org/1999/xlink" xmlns="http://www.w3.org/2000/svg">
  <desc>Created with Lunacy</desc>
  <g id="Youtube">
    <path d="M3.999 0L13.927 0Q14.1235 0 14.319 0.0192563Q14.5145 0.0385126 14.7072 0.0768396Q14.8998 0.115167 15.0878 0.172196Q15.2758 0.229224 15.4573 0.304406Q15.6389 0.379587 15.8121 0.472197Q15.9854 0.564807 16.1487 0.673953Q16.3121 0.783099 16.4639 0.907731Q16.6158 1.03236 16.7547 1.17128Q16.8936 1.3102 17.0183 1.46206Q17.1429 1.61393 17.252 1.77727Q17.3612 1.94062 17.4538 2.11388Q17.5464 2.28715 17.6216 2.46865Q17.6968 2.65015 17.7538 2.83815Q17.8108 3.02615 17.8492 3.21883Q17.8875 3.41152 17.9067 3.60703Q17.926 3.80254 17.926 3.999L17.926 9.147Q17.926 9.34346 17.9067 9.53897Q17.8875 9.73448 17.8492 9.92717Q17.8108 10.1198 17.7538 10.3078Q17.6968 10.4958 17.6216 10.6773Q17.5464 10.8589 17.4538 11.0321Q17.3612 11.2054 17.252 11.3687Q17.1429 11.5321 17.0183 11.6839Q16.8936 11.8358 16.7547 11.9747Q16.6158 12.1136 16.4639 12.2383Q16.3121 12.3629 16.1487 12.472Q15.9854 12.5812 15.8121 12.6738Q15.6389 12.7664 15.4573 12.8416Q15.2758 12.9168 15.0878 12.9738Q14.8998 13.0308 14.7072 13.0692Q14.5145 13.1075 14.319 13.1267Q14.1235 13.146 13.927 13.146L3.999 13.146Q3.80254 13.146 3.60703 13.1267Q3.41152 13.1075 3.21883 13.0692Q3.02615 13.0308 2.83815 12.9738Q2.65015 12.9168 2.46865 12.8416Q2.28715 12.7664 2.11388 12.6738Q1.94062 12.5812 1.77727 12.472Q1.61393 12.3629 1.46206 12.2383Q1.3102 12.1136 1.17128 11.9747Q1.03236 11.8358 0.907731 11.6839Q0.783099 11.5321 0.673953 11.3687Q0.564807 11.2054 0.472197 11.0321Q0.379587 10.8589 0.304406 10.6773Q0.229224 10.4958 0.172196 10.3078Q0.115167 10.1198 0.0768396 9.92717Q0.0385126 9.73448 0.0192563 9.53897Q0 9.34346 0 9.147L0 3.999Q0 3.80254 0.0192563 3.60703Q0.0385126 3.41152 0.0768396 3.21883Q0.115167 3.02615 0.172196 2.83815Q0.229224 2.65015 0.304406 2.46865Q0.379587 2.28715 0.472197 2.11388Q0.564807 1.94062 0.673953 1.77727Q0.783099 1.61393 0.907731 1.46206Q1.03236 1.3102 1.17128 1.17128Q1.3102 1.03236 1.46206 0.907731Q1.61393 0.783099 1.77727 0.673953Q1.94062 0.564807 2.11388 0.472197Q2.28715 0.379587 2.46865 0.304406Q2.65015 0.229224 2.83815 0.172196Q3.02615 0.115167 3.21883 0.0768396Q3.41152 0.0385126 3.60703 0.0192563Q3.80254 0 3.999 0L3.999 0Z" id="Rectangle_13" fill="#FFFFFF" stroke="none" />
    <path d="M6.42999 3.82477L0.442993 7.05878C0.349976 7.10922 0.237305 7.10693 0.146423 7.0528C0.055542 6.99863 -0.00012207 6.9006 0 6.7948L0 0.300812C-0.000305176 0.194702 0.055481 0.0963745 0.146667 0.0421448C0.237854 -0.012085 0.350891 -0.0141296 0.44397 0.0368042L6.43298 3.29681C6.52972 3.34976 6.5896 3.45145 6.58899 3.56171C6.58838 3.67194 6.52734 3.77295 6.43005 3.82477L6.42999 3.82477Z" transform="translate(6.176025 2.788239)" id="Path_225" fill="#FF3A46" stroke="none" />
  </g>
</svg>